[gd_scene load_steps=7 format=2]

[ext_resource path="res://img/Q.png" type="Texture" id=1]
[ext_resource path="res://img/Q2.png" type="Texture" id=2]
[ext_resource path="res://img/C.png" type="Texture" id=3]
[ext_resource path="res://img/engranaje3Dmarron.png" type="Texture" id=4]
[ext_resource path="res://img/erlenmeyer-flask-297345_1280.png" type="Texture" id=5]

[sub_resource type="Animation" id=1]
resource_name = "reaccion"
length = 3.0
tracks/0/type = "value"
tracks/0/path = NodePath("Q:rotation_degrees")
tracks/0/interp = 1
tracks/0/loop_wrap = true
tracks/0/imported = false
tracks/0/enabled = true
tracks/0/keys = {
"times": PoolRealArray( 0, 1, 2, 2.98838 ),
"transitions": PoolRealArray( 1, 1, 1, 1 ),
"update": 0,
"values": [ -130.9, -100.0, -80.0, 0.0 ]
}
tracks/1/type = "value"
tracks/1/path = NodePath("Q:position")
tracks/1/interp = 1
tracks/1/loop_wrap = true
tracks/1/imported = false
tracks/1/enabled = true
tracks/1/keys = {
"times": PoolRealArray( 0, 1, 2, 2.99939 ),
"transitions": PoolRealArray( 1, 1, 1, 1 ),
"update": 0,
"values": [ Vector2( 129.951, 143.376 ), Vector2( 160, 60 ), Vector2( 170, -80 ), Vector2( -150, 0 ) ]
}
tracks/2/type = "value"
tracks/2/path = NodePath("Q:scale")
tracks/2/interp = 1
tracks/2/loop_wrap = true
tracks/2/imported = false
tracks/2/enabled = true
tracks/2/keys = {
"times": PoolRealArray( 0, 1, 2, 2.99939 ),
"transitions": PoolRealArray( 1, 1, 1, 1 ),
"update": 0,
"values": [ Vector2( 1, 1 ), Vector2( 1, 1 ), Vector2( 1, 1 ), Vector2( 1.5, 1.5 ) ]
}
tracks/3/type = "value"
tracks/3/path = NodePath("Q2:position")
tracks/3/interp = 1
tracks/3/loop_wrap = true
tracks/3/imported = false
tracks/3/enabled = true
tracks/3/keys = {
"times": PoolRealArray( 0, 1, 2, 2.99939 ),
"transitions": PoolRealArray( 1, 1, 1, 1 ),
"update": 0,
"values": [ Vector2( 188.392, 34.697 ), Vector2( 170, -40 ), Vector2( 50, -100 ), Vector2( 10, 0 ) ]
}
tracks/4/type = "value"
tracks/4/path = NodePath("Q2:rotation_degrees")
tracks/4/interp = 1
tracks/4/loop_wrap = true
tracks/4/imported = false
tracks/4/enabled = true
tracks/4/keys = {
"times": PoolRealArray( 0, 1, 2, 2.99939 ),
"transitions": PoolRealArray( 1, 1, 1, 1 ),
"update": 0,
"values": [ 0.0, 25.0, 50.0, 0.0 ]
}
tracks/5/type = "value"
tracks/5/path = NodePath("Q2:scale")
tracks/5/interp = 1
tracks/5/loop_wrap = true
tracks/5/imported = false
tracks/5/enabled = true
tracks/5/keys = {
"times": PoolRealArray( 0, 1, 2, 2.99939 ),
"transitions": PoolRealArray( 1, 1, 1, 1 ),
"update": 0,
"values": [ Vector2( 1, 1 ), Vector2( 1, 1 ), Vector2( 1, 1 ), Vector2( 1.5, 1.5 ) ]
}
tracks/6/type = "value"
tracks/6/path = NodePath("C:position")
tracks/6/interp = 1
tracks/6/loop_wrap = true
tracks/6/imported = false
tracks/6/enabled = true
tracks/6/keys = {
"times": PoolRealArray( 0, 1, 2, 2.99939 ),
"transitions": PoolRealArray( 1, 1, 1, 1 ),
"update": 0,
"values": [ Vector2( 237.605, 192.589 ), Vector2( 180, 170 ), Vector2( 180, 80 ), Vector2( 160, 0 ) ]
}
tracks/7/type = "value"
tracks/7/path = NodePath("C:rotation_degrees")
tracks/7/interp = 1
tracks/7/loop_wrap = true
tracks/7/imported = false
tracks/7/enabled = true
tracks/7/keys = {
"times": PoolRealArray( 0, 1, 2, 2.99939 ),
"transitions": PoolRealArray( 1, 1, 1, 1 ),
"update": 0,
"values": [ -218.2, 180.0, 160.0, 0.0 ]
}
tracks/8/type = "value"
tracks/8/path = NodePath("C:scale")
tracks/8/interp = 1
tracks/8/loop_wrap = true
tracks/8/imported = false
tracks/8/enabled = true
tracks/8/keys = {
"times": PoolRealArray( 0, 1, 2, 2.99939 ),
"transitions": PoolRealArray( 1, 1, 1, 1 ),
"update": 0,
"values": [ Vector2( 1, 1 ), Vector2( 1, 1 ), Vector2( 1, 1 ), Vector2( 1.5, 1.5 ) ]
}
tracks/9/type = "value"
tracks/9/path = NodePath("Q2:z_index")
tracks/9/interp = 1
tracks/9/loop_wrap = true
tracks/9/imported = false
tracks/9/enabled = true
tracks/9/keys = {
"times": PoolRealArray( 2.99939 ),
"transitions": PoolRealArray( 1 ),
"update": 1,
"values": [ 2 ]
}
tracks/10/type = "value"
tracks/10/path = NodePath("Q:z_index")
tracks/10/interp = 1
tracks/10/loop_wrap = true
tracks/10/imported = false
tracks/10/enabled = true
tracks/10/keys = {
"times": PoolRealArray( 2.99939 ),
"transitions": PoolRealArray( 1 ),
"update": 1,
"values": [ 2 ]
}
tracks/11/type = "value"
tracks/11/path = NodePath("C:z_index")
tracks/11/interp = 1
tracks/11/loop_wrap = true
tracks/11/imported = false
tracks/11/enabled = true
tracks/11/keys = {
"times": PoolRealArray( 2.99939 ),
"transitions": PoolRealArray( 1 ),
"update": 1,
"values": [ 2 ]
}

[node name="Logo" type="Node2D"]

[node name="Q" type="Sprite" parent="."]
position = Vector2( -150, 0 )
scale = Vector2( 1.5, 1.5 )
z_index = 2
texture = ExtResource( 1 )

[node name="Q2" type="Sprite" parent="."]
position = Vector2( 10, 0 )
scale = Vector2( 1.5, 1.5 )
z_index = 2
texture = ExtResource( 2 )

[node name="C" type="Sprite" parent="."]
position = Vector2( 160, 0 )
scale = Vector2( 1.5, 1.5 )
z_index = 2
texture = ExtResource( 3 )

[node name="engranaje3Dmarron" type="Sprite" parent="."]
position = Vector2( -27.9407, 193.614 )
scale = Vector2( 1.60866, 1.76321 )
texture = ExtResource( 4 )

[node name="erlenmeyer-flask-297345_1280" type="Sprite" parent="."]
position = Vector2( 176.089, 103.39 )
scale = Vector2( 0.338672, 0.322359 )
z_index = -1
texture = ExtResource( 5 )

[node name="AnimationPlayer" type="AnimationPlayer" parent="."]
autoplay = "reaccion"
anims/reaccion = SubResource( 1 )
